8 8 8 8 0 0 0 0 0 0 0 8 8 8 8 
8 1 0 0 0 0 0 0 0 0 0 0 0 3 8 
8 0 0 0 0 0 0 0 0 0 0 0 0 0 8 
0 0 0 0 0 0 0 0 0 0 0 0 0 0 0 
0 0 0 0 0 0 0 0 0 0 0 0 0 0 0 
8 0 0 0 0 8 0 0 0 0 0 0 0 0 8 
8 2 0 0 0 0 0 0 0 0 0 0 0 0 8 
8 8 8 8 0 0 0 0 0 0 0 8 8 8 8 