0 0 0 0 0 0 0 0 0 0 0 0 0 0 0 0 0 0 0 0 0 0 0 0 0 0 0 0 0 0
0 1 0 1 1 1 1 1 1 1 1 1 1 1 1 0 1 1 1 1 1 0 1 1 1 1 1 1 1 0
0 1 0 1 0 0 0 0 0 0 0 0 0 0 1 1 1 0 0 0 1 0 1 0 0 0 0 0 0 0
0 1 0 1 1 1 0 1 1 1 1 1 1 0 1 0 0 0 1 1 1 0 1 1 1 1 1 1 1 0
0 1 0 1 0 1 1 1 0 1 0 1 0 0 1 1 1 0 1 0 1 1 1 1 1 1 0 0 1 0
0 1 0 0 0 0 0 0 0 1 0 1 1 1 0 0 0 0 0 0 1 0 0 0 0 1 0 1 1 0
0 1 1 1 1 1 1 1 0 1 0 0 0 1 0 1 1 1 1 0 1 1 1 1 0 1 0 1 0 0
0 1 0 1 0 0 0 0 0 1 1 1 0 1 1 1 0 0 0 0 0 0 0 1 0 1 0 1 1 0
0 1 0 1 0 1 1 1 0 0 0 1 0 0 0 1 0 4 1 1 0 1 1 1 0 1 0 0 1 0
0 1 0 1 1 1 0 1 1 1 0 1 0 5 0 1 0 0 0 1 0 1 0 0 1 1 0 1 1 0
0 1 0 0 0 0 0 0 0 1 0 1 0 1 0 1 1 1 1 1 0 1 1 1 0 0 0 1 0 0
0 1 1 1 1 0 1 1 1 1 0 1 0 1 0 1 0 0 0 1 0 0 0 1 0 1 1 1 1 0
0 0 0 0 1 0 1 0 1 0 0 1 0 1 0 1 0 1 1 1 0 1 1 1 0 1 0 0 7 0
0 1 1 1 1 0 1 0 1 0 1 1 0 1 0 1 0 1 0 0 0 1 0 0 1 1 0 1 1 0
0 1 0 0 0 0 1 0 1 0 1 0 0 1 0 1 0 1 1 0 1 1 0 1 1 0 1 0 1 0
0 1 1 1 1 1 1 0 1 1 1 0 6 1 0 1 1 0 1 1 1 0 1 1 0 2 1 1 1 0
0 0 0 0 0 0 0 0 0 0 0 0 0 0 0 0 0 0 0 0 0 0 0 0 0 0 0 0 0 0
